C:\Users\ib\Desktop\TP fil_rouge\17-12-2021\cuisinespring\cuisine2\src\main\java\fr\ib\cuisine\Application.java
C:\Users\ib\Desktop\TP fil_rouge\17-12-2021\cuisinespring\cuisine2\src\main\java\fr\ib\cuisine\CuisineService.java
C:\Users\ib\Desktop\TP fil_rouge\17-12-2021\cuisinespring\cuisine2\src\main\java\fr\ib\cuisine\CuisineController.java
